dump.vcd
$date
	Tue Jul  2 00:08:03 2024
$end
$version
	QuestaSim Version 2023.1
$end
$timescale
	100ps
$end

$scope module top $end
$var reg 1 ! clk $end
$var reg 1 " reset $end

$scope module DUV $end
$var wire 1 # address [4] $end
$var wire 1 $ address [3] $end
$var wire 1 % address [2] $end
$var wire 1 & address [1] $end
$var wire 1 ' address [0] $end
$var wire 1 ( clk $end
$var wire 1 ) data_in [7] $end
$var wire 1 * data_in [6] $end
$var wire 1 + data_in [5] $end
$var wire 1 , data_in [4] $end
$var wire 1 - data_in [3] $end
$var wire 1 . data_in [2] $end
$var wire 1 / data_in [1] $end
$var wire 1 0 data_in [0] $end
$var wire 1 1 read_enb $end
$var wire 1 2 reset $end
$var wire 1 3 write_enb $end
$var reg 8 4 data_out [7:0] $end
$upscope $end

$scope module intrf $end
$var reg 5 5 address [4:0] $end
$var reg 8 6 data_in [7:0] $end
$var reg 8 7 data_out [7:0] $end
$var reg 1 8 read_enb $end
$var reg 1 9 write_enb $end
$var reg 1 : clk $end
$var reg 1 ; reset $end

$scope begin drv_cb $end
$var event 1 < drv_cb_event $end
$var reg 5 = address [4:0] $end
$var reg 8 > data_in [7:0] $end
$var reg 1 ? read_enb $end
$var reg 1 @ write_enb $end
$var reg 1 A reset $end
$upscope $end

$scope begin mon_cb $end
$var event 1 B mon_cb_event $end
$var reg 8 C data_out [7:0] $end
$upscope $end

$scope begin ref_cb $end
$var event 1 D ref_cb_event $end
$upscope $end
$upscope $end
$upscope $end

$scope begin design_sv_unit $end
$upscope $end

$scope begin std $end
$upscope $end
$enddefinitions $end
#0
$dumpvars
x1
x3
x0
x/
x.
x-
x,
x+
x*
x)
x'
x&
x%
x$
x#
x2
0(
0!
x"
bx 4
bx 5
bx 6
bx 7
x8
x9
0:
0;
1<
bx =
bx >
x?
x@
0A
1B
bx C
1D
$end
#100
1!
1:
1(
0"
02
bz 4
bz 7
bz C
1<
1B
1D
#200
0!
0:
0(
#300
1!
1:
1(
1"
1;
12
1A
1<
1B
1D
#400
0!
0:
0(
#500
1!
1:
1(
1<
1B
1D
#600
0!
0:
0(
#700
1!
1:
1(
1<
1B
1D
0@
0?
b1000011 >
b1 =
09
08
b1000011 6
b1 5
03
01
1'
0&
0%
0$
0#
10
1/
0.
0-
0,
0+
1*
0)
#800
0!
0:
0(
#900
1!
1:
1(
1<
1B
1D
0@
#1000
0!
0:
0(
#1100
1!
1:
1(
1<
1B
1D
0@
0?
b1110111 >
b11100 =
b1110111 6
b11100 5
0'
1%
1$
1#
1.
1,
1+
#1200
0!
0:
0(
#1300
1!
1:
1(
1<
1B
1D
0@
#1400
0!
0:
0(
#1500
1!
1:
1(
1<
1B
1D
0@
0?
b101111 >
b1010 =
b101111 6
b1010 5
1&
0%
0#
1-
0,
0*
#1600
0!
0:
0(
#1700
1!
1:
1(
1<
1B
1D
0@
#1800
0!
0:
0(
#1900
1!
1:
1(
1<
1B
1D
0@
1?
b11011110 >
b100 =
18
b11011110 6
b100 5
11
0&
1%
0$
00
1,
0+
1*
1)
#2000
0!
0:
0(
#2100
1!
1:
1(
bx 4
bx 7
bx C
1<
1B
1D
0@
#2200
0!
0:
0(
#2300
1!
1:
1(
1<
1B
1D
1@
0?
b1111 >
b111 =
19
08
b1111 6
b111 5
13
01
1'
1&
10
0,
0*
0)
#2400
0!
0:
0(
#2500
1!
1:
1(
bz 4
bz 7
bz C
1<
1B
1D
0@
09
03
#2600
0!
0:
0(
#2700
1!
1:
1(
1<
1B
1D
1@
0?
b1011000 >
b10000 =
19
b1011000 6
b10000 5
13
0'
0&
0%
1#
00
0/
0.
1,
1*
#2800
0!
0:
0(
#2900
1!
1:
1(
1<
1B
1D
0@
09
03
#3000
0!
0:
0(
#3100
1!
1:
1(
1<
1B
1D
0@
1?
b11110 >
b110 =
18
b11110 6
b110 5
11
1&
1%
0#
1/
1.
0*
#3200
0!
0:
0(
#3300
1!
1:
1(
bx 4
bx 7
bx C
1<
1B
1D
0@
#3400
0!
0:
0(
#3500
1!
1:
1(
1<
1B
1D
1@
0?
b101000 >
b10000 =
19
08
b101000 6
b10000 5
13
01
0&
0%
1#
0/
0.
0,
1+
#3600
0!
0:
0(
#3700
1!
1:
1(
bz 4
bz 7
bz C
1<
1B
1D
0@
09
03
#3800
0!
0:
0(
#3900
1!
1:
1(
1<
1B
1D
0@
0?
b10001100 >
b11110 =
b10001100 6
b11110 5
1&
1%
1$
1.
0+
1)
#4000
0!
0:
0(
#4100
1!
1:
1(
1<
1B
1D
0@
#4200
0!
0:
0(
#4300
1!
1:
1(
1<
1B
1D
0@
0?
b110101 >
b11 =
b110101 6
b11 5
1'
0%
0$
0#
10
0-
1,
1+
0)
#4400
0!
0:
0(
#4500
1!
1:
1(
1<
1B
1D
0@
#4600
0!
0:
0(
#4700
1!
1:
1(
1<
1B
1D
0@
1?
b101100 >
b1101 =
18
b101100 6
b1101 5
11
0&
1%
1$
00
1-
0,
#4800
0!
0:
0(
#4900
1!
1:
1(
bx 4
bx 7
bx C
1<
1B
1D
0@
#5000
0!
0:
0(
#5100
1!
1:
1(
1<
1B
1D
0@
1?
b111001 >
b1 =
b111001 6
b1 5
0%
0$
10
0.
1,
#5200
0!
0:
0(
#5300
1!
1:
1(
1<
1B
1D
0@
#5400
0!
0:
0(
#5500
1!
1:
1(
1<
1B
1D
0@
1?
b11011111 >
b10001 =
b11011111 6
b10001 5
1#
1/
1.
0+
1*
1)
#5600
0!
0:
0(
#5700
1!
1:
1(
1<
1B
1D
0@
#5800
0!
0:
0(
#5900
1!
1:
1(
1<
1B
1D
0@
0?
b10011 >
b10101 =
08
b10011 6
b10101 5
01
1%
0.
0-
0*
0)
#6000
0!
0:
0(
#6100
1!
1:
1(
bz 4
bz 7
bz C
1<
1B
1D
0@
#6200
0!
0:
0(
#6300
1!
1:
1(
1<
1B
1D
0@
0?
b11111 >
b11011 =
b11111 6
b11011 5
1&
0%
1$
1.
1-
#6400
0!
0:
0(
#6500
1!
1:
1(
1<
1B
1D
0@
#6600
0!
0:
0(
#6700
1!
1:
1(
1<
1B
1D
0@
0?
b1011000 >
b1001 =
b1011000 6
b1001 5
0&
0#
00
0/
0.
1*
#6800
0!
0:
0(
#6900
1!
1:
1(
1<
1B
1D
0@
#7000
0!
0:
0(
#7100
1!
1:
1(
1<
1B
1D
0@
0?
b11000010 >
b10101 =
b11000010 6
b10101 5
1%
0$
1#
1/
0-
0,
1)
#7200
0!
0:
0(
#7300
1!
1:
1(
1<
1B
1D
0@
#7400
0!
0:
0(
#7500
1!
1:
1(
1<
1B
1D
1@
0?
b11000111 >
b1110 =
19
b11000111 6
b1110 5
13
0'
1&
1$
0#
10
1.
#7600
0!
0:
0(
#7700
1!
1:
1(
1<
1B
1D
0@
09
03
#7800
0!
0:
0(
#7900
1!
1:
1(
1<
1B
1D
0@
0?
b100110 >
b1001 =
b100110 6
b1001 5
1'
0&
0%
00
1+
0*
0)
#8000
0!
0:
0(
#8100
1!
1:
1(
1<
1B
1D
0@
#8200
0!
0:
0(
#8300
1!
1:
1(
1<
1B
1D
1@
0?
b11100001 >
b11000 =
19
b11100001 6
b11000 5
13
0'
1#
10
0/
0.
1*
1)
#8400
0!
0:
0(
#8500
1!
1:
1(
1<
1B
1D
0@
09
03
#8600
0!
0:
0(
#8700
1!
1:
1(
1<
1B
1D
1@
0?
b10111111 >
b11000 =
19
b10111111 6
13
1/
1.
1-
1,
0*
#8800
0!
0:
0(
#8900
1!
1:
1(
1<
1B
1D
0@
09
03
#9000
0!
0:
0(
#9100
1!
1:
1(
1<
1B
1D
0@
1?
b111000 >
b110 =
18
b111000 6
b110 5
11
1&
1%
0$
0#
00
0/
0.
0)
#9200
0!
0:
0(
#9300
1!
1:
1(
bx 4
bx 7
bx C
1<
1B
1D
0@
#9400
0!
0:
0(
#9500
1!
1:
1(
1<
1B
1D
0@
0?
b1000010 >
b111 =
08
b1000010 6
b111 5
01
1'
1/
0-
0,
0+
1*
#9600
0!
0:
0(
#9700
1!
1:
1(
bz 4
bz 7
bz C
1<
1B
1D
0@
#9800
0!
0:
0(
#9900
1!
1:
1(
1<
1B
1D
0@
0?
b10111000 >
b1001 =
b10111000 6
b1001 5
0&
0%
1$
0/
1-
1,
1+
0*
1)
#10000
0!
0:
0(
#10100
1!
1:
1(
1<
1B
1D
0@
#10200
0!
0:
0(
#10300
1!
1:
1(
1<
1B
1D
0@
1?
b1011101 >
b11011 =
18
b1011101 6
b11011 5
11
1&
1#
10
1.
0+
1*
0)
#10400
0!
0:
0(
#10500
1!
1:
1(
bx 4
bx 7
bx C
1<
1B
1D
0@
#10600
0!
0:
0(
#10700
1!
1:
1(
1<
1B
1D
0@
1?
b11001001 >
b10011 =
b11001001 6
b10011 5
0$
0.
0,
1)
#10800
0!
0:
0(
#10900
1!
1:
1(
1<
1B
1D
0@
#11000
0!
0:
0(
#11100
1!
1:
1(
1<
1B
1D
0@
0?
b1111001 >
b10 =
08
b1111001 6
b10 5
01
0'
0#
1,
1+
0)
#11200
0!
0:
0(
#11300
1!
1:
1(
bz 4
bz 7
bz C
1<
1B
1D
0@
#11400
0!
0:
0(
#11500
1!
1:
1(
1<
1B
1D
1@
0?
b11010111 >
b11101 =
19
b11010111 6
b11101 5
13
1'
0&
1%
1$
1#
1/
1.
0-
0+
1)
#11600
0!
0:
0(
#11700
1!
1:
1(
1<
1B
1D
0@
09
03
#11800
0!
0:
0(
#11900
1!
1:
1(
1<
1B
1D
0@
1?
b10000110 >
b1 =
18
b10000110 6
b1 5
11
0%
0$
0#
00
0,
0*
#12000
0!
0:
0(
#12100
1!
1:
1(
bx 4
bx 7
bx C
1<
1B
1D
0@
#12200
0!
0:
0(
#12300
1!
1:
1(
1<
1B
1D
1@
0?
b1010110 >
b11101 =
19
08
b1010110 6
b11101 5
13
01
1%
1$
1#
1,
1*
0)
#12400
0!
0:
0(
#12500
1!
1:
1(
bz 4
bz 7
bz C
1<
1B
1D
0@
09
03
#12600
0!
0:
0(
#12700
1!
1:
1(
1<
1B
1D
0@
0?
b11100001 >
b0 =
b11100001 6
b0 5
0'
0%
0$
0#
10
0/
0.
0,
1+
1)
#12800
0!
0:
0(
#12900
1!
1:
1(
1<
1B
1D
0@
#13000
0!
0:
0(
#13100
1!
1:
1(
1<
1B
1D
1@
0?
b10000111 >
b100 =
19
b10000111 6
b100 5
13
1%
1/
1.
0+
0*
#13200
0!
0:
0(
#13300
1!
1:
1(
1<
1B
1D
0@
09
03
#13400
0!
0:
0(
#13500
1!
1:
1(
1<
1B
1D
0@
0?
b11110001 >
b1011 =
b11110001 6
b1011 5
1'
1&
0%
1$
0/
0.
1,
1+
1*
#13600
0!
0:
0(
#13700
1!
1:
1(
1<
1B
1D
0@
#13800
0!
0:
0(
#13900
1!
1:
1(
1<
1B
1D
0@
0?
b1010010 >
b1110 =
b1010010 6
b1110 5
0'
1%
00
1/
0+
0)
#14000
0!
0:
0(
#14100
1!
1:
1(
1<
1B
1D
0@
#14200
0!
0:
0(
#14300
1!
1:
1(
1<
1B
1D
1@
0?
b1010010 >
b1100 =
19
b1100 5
13
0&
#14400
0!
0:
0(
#14500
1!
1:
1(
1<
1B
1D
0@
09
03
#14600
0!
0:
0(
#14700
1!
1:
1(
1<
1B
1D
1@
0?
b1111 >
b11011 =
19
b1111 6
b11011 5
13
1'
1&
0%
1#
10
1.
1-
0,
0*
#14800
0!
0:
0(
#14900
1!
1:
1(
1<
1B
1D
0@
09
03
#15000
0!
0:
0(
#15100
1!
1:
1(
1<
1B
1D
1@
0?
b1101111 >
b1110 =
19
b1101111 6
b1110 5
13
0'
1%
0#
1+
1*
#15200
0!
0:
0(
#15300
1!
1:
1(
1<
1B
1D
0@
09
03
#15400
0!
0:
0(
#15500
1!
1:
1(
1<
1B
1D
0@
1?
b101 >
b10111 =
18
b101 6
b10111 5
11
1'
0$
1#
0/
0-
0+
0*
#15600
0!
0:
0(
#15700
1!
1:
1(
bx 4
bx 7
bx C
1<
1B
1D
0@
#15800
0!
0:
0(
#15900
1!
1:
1(
1<
1B
1D
0@
1?
b110000 >
b1000 =
b110000 6
b1000 5
0'
0&
0%
1$
0#
00
0.
1,
1+
#16000
0!
0:
0(
#16100
1!
1:
1(
1<
1B
1D
0@
#16200
0!
0:
0(
#16300
1!
1:
1(
1<
1B
1D
0@
1?
b10000010 >
b10010 =
b10000010 6
b10010 5
1&
0$
1#
1/
0,
0+
1)
#16400
0!
0:
0(
#16500
1!
1:
1(
1<
1B
1D
0@
#16600
0!
0:
0(
#16700
1!
1:
1(
1<
1B
1D
0@
0?
b1011110 >
b10010 =
08
b1011110 6
01
1.
1-
1,
1*
0)
#16800
0!
0:
0(
#16900
1!
1:
1(
bz 4
bz 7
bz C
1<
1B
1D
0@
#17000
0!
0:
0(
#17100
1!
1:
1(
1<
1B
1D
1@
0?
b10110101 >
b1011 =
19
b10110101 6
b1011 5
13
1'
1$
0#
10
0/
0-
1+
0*
1)
#17200
0!
0:
0(
#17300
1!
1:
1(
1<
1B
1D
0@
09
03
#17400
0!
0:
0(
#17500
1!
1:
1(
1<
1B
1D
1@
0?
b11010111 >
b10011 =
19
b11010111 6
b10011 5
13
0$
1#
1/
0+
1*
#17600
0!
0:
0(
#17700
1!
1:
1(
1<
1B
1D
0@
09
03
#17800
0!
0:
0(
#17900
1!
1:
1(
1<
1B
1D
0@
0?
b1010011 >
b10001 =
b1010011 6
b10001 5
0&
0.
0)
#18000
0!
0:
0(
#18100
1!
1:
1(
1<
1B
1D
0@
#18200
0!
0:
0(
#18300
1!
1:
1(
1<
1B
1D
0@
1?
b1100001 >
b10001 =
18
b1100001 6
11
0/
0,
1+
#18400
0!
0:
0(
#18500
1!
1:
1(
bx 4
bx 7
bx C
1<
1B
1D
0@
#18600
0!
0:
0(
#18700
1!
1:
1(
1<
1B
1D
1@
0?
b10101111 >
b10110 =
19
08
b10101111 6
b10110 5
13
01
0'
1&
1%
1/
1.
1-
0*
1)
#18800
0!
0:
0(
#18900
1!
1:
1(
bz 4
bz 7
bz C
1<
1B
1D
0@
09
03
#19000
0!
0:
0(
#19100
1!
1:
1(
1<
1B
1D
1@
0?
b1101001 >
b11001 =
19
b1101001 6
b11001 5
13
1'
0&
0%
1$
0/
0.
1*
0)
#19200
0!
0:
0(
#19300
1!
1:
1(
1<
1B
1D
0@
09
03
#19400
0!
0:
0(
#19500
1!
1:
1(
1<
1B
1D
1@
0?
b10001100 >
b0 =
19
b10001100 6
b0 5
13
0'
0$
0#
00
1.
0+
0*
1)
#19600
0!
0:
0(
#19700
1!
1:
1(
1<
1B
1D
0@
09
03
#19800
0!
0:
0(
#19900
1!
1:
1(
1<
1B
1D
0@
1?
b10000 >
b11000 =
18
b10000 6
b11000 5
11
1$
1#
0.
0-
1,
0)
#20000
0!
0:
0(
#20100
1!
1:
1(
b10111111 4
b10111111 7
b10111111 C
1<
1B
1D
0@
#20200
0!
0:
0(
#20300
1!
1:
1(
1<
1B
1D
0@
0?
b100100 >
b11 =
08
b100100 6
b11 5
01
1'
1&
0$
0#
1.
0,
1+
#20400
0!
0:
0(
#20500
1!
1:
1(
bz 4
bz 7
bz C
1<
1B
1D
0@
#20600
0!
0:
0(
#20700
1!
1:
1(
1<
1B
1D
1@
0?
b111001 >
b11001 =
19
b111001 6
b11001 5
13
0&
1$
1#
10
0.
1-
1,
#20800
0!
0:
0(
#20900
1!
1:
1(
1<
1B
1D
0@
09
03
#21000
0!
0:
0(
#21100
1!
1:
1(
1<
1B
1D
0@
0?
b11001011 >
b0 =
b11001011 6
b0 5
0'
0$
0#
1/
0,
0+
1*
1)
#21200
0!
0:
0(
#21300
1!
1:
1(
1<
1B
1D
0@
#21400
0!
0:
0(
#21500
1!
1:
1(
1<
1B
1D
1@
0?
b1011111 >
b11101 =
19
b1011111 6
b11101 5
13
1'
1%
1$
1#
1.
1,
0)
#21600
0!
0:
0(
#21700
1!
1:
1(
1<
1B
1D
0@
09
03
#21800
0!
0:
0(
#21900
1!
1:
1(
1<
1B
1D
0@
1?
b101100 >
b10110 =
18
b101100 6
b10110 5
11
0'
1&
0$
00
0/
0,
1+
0*
#22000
0!
0:
0(
#22100
1!
1:
1(
b10101111 4
b10101111 7
b10101111 C
1<
1B
1D
0@
#22200
0!
0:
0(
#22300
1!
1:
1(
1<
1B
1D
0@
0?
b100010 >
b1 =
08
b100010 6
b1 5
01
1'
0&
0%
0#
1/
0.
0-
#22400
0!
0:
0(
#22500
1!
1:
1(
bz 4
bz 7
bz C
1<
1B
1D
0@
#22600
0!
0:
0(
#22700
1!
1:
1(
1<
1B
1D
0@
0?
b11101100 >
b1000 =
b11101100 6
b1000 5
0'
1$
0/
1.
1-
1*
1)
#22800
0!
0:
0(
#22900
1!
1:
1(
1<
1B
1D
0@
#23000
0!
0:
0(
#23100
1!
1:
1(
1<
1B
1D
1@
0?
b11011100 >
b101 =
19
b11011100 6
b101 5
13
1'
1%
0$
1,
0+
#23200
0!
0:
0(
#23300
1!
1:
1(
1<
1B
1D
0@
09
03
#23400
0!
0:
0(
#23500
1!
1:
1(
1<
1B
1D
1@
0?
b11000010 >
b101 =
19
b11000010 6
13
1/
0.
0-
0,
#23600
0!
0:
0(
#23700
1!
1:
1(
1<
1B
1D
0@
09
03
#23800
0!
0:
0(
#23900
1!
1:
1(
1<
1B
1D
0@
0?
b1101111 >
b10111 =
b1101111 6
b10111 5
1&
1#
10
1.
1-
1+
0)
#24000
0!
0:
0(
#24100
1!
1:
1(
1<
1B
1D
0@
#24200
0!
0:
0(
#24300
1!
1:
1(
1<
1B
1D
0@
1?
b11000101 >
b101 =
18
b11000101 6
b101 5
11
0&
0#
0/
0-
0+
1)
#24400
0!
0:
0(
#24500
1!
1:
1(
b11000010 4
b11000010 7
b11000010 C
1<
1B
1D
0@
#24600
0!
0:
0(
#24700
1!
1:
1(
1<
1B
1D
0@
1?
b11100011 >
b1001 =
b11100011 6
b1001 5
0%
1$
1/
0.
1+
#24800
0!
0:
0(
#24900
1!
1:
1(
bx 4
bx 7
bx C
1<
1B
1D
0@
#25000
0!
0:
0(
#25100
1!
1:
1(
1<
1B
1D
0@
1?
b10110000 >
b10110 =
b10110000 6
b10110 5
0'
1&
1%
0$
1#
00
0/
1,
0*
#25200
0!
0:
0(
#25300
1!
1:
1(
b10101111 4
b10101111 7
b10101111 C
1<
1B
1D
0@
#25400
0!
0:
0(
#25500
1!
1:
1(
1<
1B
1D
0@
1?
b10011001 >
b0 =
b10011001 6
b0 5
0&
0%
0#
10
1-
0+
#25600
0!
0:
0(
#25700
1!
1:
1(
b10001100 4
b10001100 7
b10001100 C
1<
1B
1D
0@
#25800
0!
0:
0(
#25900
1!
1:
1(
1<
1B
1D
1@
0?
b11111111 >
b11000 =
19
08
b11111111 6
b11000 5
13
01
1$
1#
1/
1.
1+
1*
#26000
0!
0:
0(
#26100
1!
1:
1(
bz 4
bz 7
bz C
1<
1B
1D
0@
09
03
#26200
0!
0:
0(
#26300
1!
1:
1(
1<
1B
1D
1@
0?
b11001101 >
b1010 =
19
b11001101 6
b1010 5
13
1&
0#
0/
0,
0+
#26400
0!
0:
0(
#26500
1!
1:
1(
1<
1B
1D
0@
09
03
#26600
0!
0:
0(
#26700
1!
1:
1(
1<
1B
1D
1@
0?
b1011111 >
b101 =
19
b1011111 6
b101 5
13
1'
0&
1%
0$
1/
1,
0)
#26800
0!
0:
0(
#26900
1!
1:
1(
1<
1B
1D
0@
09
03
#27000
0!
0:
0(
#27100
1!
1:
1(
1<
1B
1D
1@
0?
b1011001 >
b11101 =
19
b1011001 6
b11101 5
13
1$
1#
0/
0.
#27200
0!
0:
0(
#27300
1!
1:
1(
1<
1B
1D
0@
09
03
#27400
0!
0:
0(
#27500
1!
1:
1(
1<
1B
1D
0@
1?
b1111110 >
b110 =
18
b1111110 6
b110 5
11
0'
1&
0$
0#
00
1/
1.
1+
#27600
0!
0:
0(
#27700
1!
1:
1(
bx 4
bx 7
bx C
1<
1B
1D
0@
#27800
0!
0:
0(
#27900
1!
1:
1(
1<
1B
1D
0@
1?
b1010011 >
b1110 =
b1010011 6
b1110 5
1$
10
0.
0-
0+
#28000
0!
0:
0(
#28100
1!
1:
1(
b1101111 4
b1101111 7
b1101111 C
1<
1B
1D
0@
#28200
0!
0:
0(
#28300
1!
1:
1(
1<
1B
1D
0@
1?
b11111001 >
b1111 =
b11111001 6
b1111 5
1'
0/
1-
1+
1)
#28400
0!
0:
0(
#28500
1!
1:
1(
bx 4
bx 7
bx C
1<
1B
1D
0@
#28600
0!
0:
0(
#28700
1!
1:
1(
1<
1B
1D
1@
0?
b10110111 >
b100 =
19
08
b10110111 6
b100 5
13
01
0'
0&
0$
1/
1.
0-
0*
#28800
0!
0:
0(
#28900
1!
1:
1(
bz 4
bz 7
bz C
1<
1B
1D
0@
09
03
#29000
0!
0:
0(
#29100
1!
1:
1(
1<
1B
1D
0@
1?
b10001101 >
b1011 =
18
b10001101 6
b1011 5
11
1'
1&
0%
1$
0/
1-
0,
0+
#29200
0!
0:
0(
#29300
1!
1:
1(
b10110101 4
b10110101 7
b10110101 C
1<
1B
1D
0@
#29400
0!
0:
0(
#29500
1!
1:
1(
1<
1B
1D
0@
0?
b10001 >
b11011 =
08
b10001 6
b11011 5
01
1#
0.
0-
1,
0)
#29600
0!
0:
0(
#29700
1!
1:
1(
bz 4
bz 7
bz C
1<
1B
1D
0@
#29800
0!
0:
0(
#29900
1!
1:
1(
1<
1B
1D
0@
0?
b10001010 >
b1010 =
b10001010 6
b1010 5
0'
0#
00
1/
1-
0,
1)
#30000
0!
0:
0(
#30100
1!
1:
1(
1<
1B
1D
0@
#30200
0!
0:
0(
#30300
1!
1:
1(
1<
1B
1D
1@
0?
b111000 >
b1000 =
19
b111000 6
b1000 5
13
0&
0/
1,
1+
0)
#30400
0!
0:
0(
#30500
1!
1:
1(
1<
1B
1D
0@
09
03
#30600
0!
0:
0(
#30700
1!
1:
1(
1<
1B
1D
1@
0?
b10110111 >
b10111 =
19
b10110111 6
b10111 5
13
1'
1&
1%
0$
1#
10
1/
1.
0-
1)
#30800
0!
0:
0(
#30900
1!
1:
1(
1<
1B
1D
0@
09
03
#31000
0!
0:
0(
#31100
1!
1:
1(
1<
1B
1D
1@
0?
b11111000 >
b101 =
19
b11111000 6
b101 5
13
0&
0#
00
0/
0.
1-
1*
#31200
0!
0:
0(
#31300
1!
1:
1(
1<
1B
1D
0@
09
03
#31400
0!
0:
0(
#31500
1!
1:
1(
1<
1B
1D
1@
0?
b110100 >
b10011 =
19
b110100 6
b10011 5
13
1&
0%
1#
1.
0-
0*
0)
#31600
0!
0:
0(
#31700
1!
1:
1(
1<
1B
1D
0@
09
03
#31800
0!
0:
0(
#31900
1!
1:
1(
1<
1B
1D
0@
1?
b10011111 >
b1 =
18
b10011111 6
b1 5
11
0&
0#
10
1/
1-
0+
1)
#32000
0!
0:
0(
#32100
1!
1:
1(
bx 4
bx 7
bx C
1<
1B
1D
0@
#32200
0!
0:
0(
#32300
1!
1:
1(
1<
1B
1D
1@
0?
b100011 >
b11101 =
19
08
b100011 6
b11101 5
13
01
1%
1$
1#
0.
0-
0,
1+
0)
#32400
0!
0:
0(
#32500
1!
1:
1(
bz 4
bz 7
bz C
1<
1B
1D
0@
09
03
#32600
0!
0:
0(
#32700
1!
1:
1(
1<
1B
1D
1@
0?
b110000 >
b10010 =
19
b110000 6
b10010 5
13
0'
1&
0%
0$
00
0/
1,
#32800
0!
0:
0(
#32900
1!
1:
1(
1<
1B
1D
0@
09
03
#33000
0!
0:
0(
#33100
1!
1:
1(
1<
1B
1D
0@
1?
b11000010 >
b10111 =
18
b11000010 6
b10111 5
11
1'
1%
1/
0,
0+
1*
1)
#33200
0!
0:
0(
#33300
1!
1:
1(
b10110111 4
b10110111 7
b10110111 C
1<
1B
1D
0@
#33400
0!
0:
0(
#33500
1!
1:
1(
1<
1B
1D
1@
0?
b110000 >
b1011 =
19
08
b110000 6
b1011 5
13
01
0%
1$
0#
0/
1,
1+
0*
0)
#33600
0!
0:
0(
#33700
1!
1:
1(
bz 4
bz 7
bz C
1<
1B
1D
0@
09
03
#33800
0!
0:
0(
#33900
1!
1:
1(
1<
1B
1D
0@
1?
b10110000 >
b1100 =
18
b10110000 6
b1100 5
11
0'
0&
1%
1)
#34000
0!
0:
0(
#34100
1!
1:
1(
b1010010 4
b1010010 7
b1010010 C
1<
1B
1D
0@
#34200
0!
0:
0(
#34300
1!
1:
1(
1<
1B
1D
0@
0?
b11110110 >
b10 =
08
b11110110 6
b10 5
01
1&
0%
0$
1/
1.
1*
#34400
0!
0:
0(
#34500
1!
1:
1(
bz 4
bz 7
bz C
1<
1B
1D
0@
#34600
0!
0:
0(
#34700
1!
1:
1(
1<
1B
1D
1@
0?
b11011110 >
b10101 =
19
b11011110 6
b10101 5
13
1'
0&
1%
1#
1-
0+
#34800
0!
0:
0(
#34900
1!
1:
1(
1<
1B
1D
0@
09
03
#35000
0!
0:
0(
#35100
1!
1:
1(
1<
1B
1D
0@
1?
b10111001 >
b10 =
18
b10111001 6
b10 5
11
0'
1&
0%
0#
10
0/
0.
1+
0*
#35200
0!
0:
0(
#35300
1!
1:
1(
bx 4
bx 7
bx C
1<
1B
1D
0@
#35400
0!
0:
0(
#35500
1!
1:
1(
1<
1B
1D
0@
1?
b10100010 >
b1 =
b10100010 6
b1 5
1'
0&
00
1/
0-
0,
#35600
0!
0:
0(
#35700
1!
1:
1(
1<
1B
1D
0@
#35800
0!
0:
0(
#35900
1!
1:
1(
1<
1B
1D
0@
0?
b1001001 >
b11000 =
08
b1001001 6
b11000 5
01
0'
1$
1#
10
0/
1-
0+
1*
0)
#36000
0!
0:
0(
#36100
1!
1:
1(
bz 4
bz 7
bz C
1<
1B
1D
0@
#36200
0!
0:
0(
#36300
1!
1:
1(
1<
1B
1D
0@
1?
b111111 >
b1110 =
18
b111111 6
b1110 5
11
1&
1%
0#
1/
1.
1,
1+
0*
#36400
0!
0:
0(
#36500
1!
1:
1(
b1101111 4
b1101111 7
b1101111 C
1<
1B
1D
0@
#36600
0!
0:
0(
#36700
1!
1:
1(
1<
1B
1D
0@
0?
b1010111 >
b10010 =
08
b1010111 6
b10010 5
01
0%
0$
1#
0-
0+
1*
#36800
0!
0:
0(
#36900
1!
1:
1(
bz 4
bz 7
bz C
1<
1B
1D
0@
#37000
0!
0:
0(
#37100
1!
1:
1(
1<
1B
1D
0@
1?
b11001001 >
b10100 =
18
b11001001 6
b10100 5
11
0&
1%
0/
0.
1-
0,
1)
#37200
0!
0:
0(
#37300
1!
1:
1(
bx 4
bx 7
bx C
1<
1B
1D
0@
#37400
0!
0:
0(
#37500
1!
1:
1(
1<
1B
1D
0@
1?
b1111001 >
b1 =
b1111001 6
b1 5
1'
0%
0#
1,
1+
0)
#37600
0!
0:
0(
#37700
1!
1:
1(
1<
1B
1D
0@
#37800
0!
0:
0(
#37900
1!
1:
1(
1<
1B
1D
0@
1?
b1101000 >
b1101 =
b1101000 6
b1101 5
1%
1$
00
0,
#38000
0!
0:
0(
#38100
1!
1:
1(
1<
1B
1D
0@
#38200
0!
0:
0(
#38300
1!
1:
1(
1<
1B
1D
0@
0?
b11010 >
b1100 =
08
b11010 6
b1100 5
01
0'
1/
1,
0+
0*
#38400
0!
0:
0(
#38500
1!
1:
1(
bz 4
bz 7
bz C
1<
1B
1D
0@
#38600
0!
0:
0(
#38700
1!
1:
1(
1<
1B
1D
1@
0?
b10110101 >
b11101 =
19
b10110101 6
b11101 5
13
1'
1#
10
0/
1.
0-
1+
1)
#38800
0!
0:
0(
#38900
1!
1:
1(
1<
1B
1D
0@
09
03
#39000
0!
0:
0(
#39100
1!
1:
1(
1<
1B
1D
0@
0?
b1101110 >
b1100 =
b1101110 6
b1100 5
0'
0#
00
1/
1-
0,
1*
0)
#39200
0!
0:
0(
#39300
1!
1:
1(
1<
1B
1D
0@
#39400
0!
0:
0(
#39500
1!
1:
1(
1<
1B
1D
0@
1?
b1011010 >
b1001 =
18
b1011010 6
b1001 5
11
1'
0%
0.
1,
0+
#39600
0!
0:
0(
#39700
1!
1:
1(
bx 4
bx 7
bx C
1<
1B
1D
0@
#39800
0!
0:
0(
#39900
1!
1:
1(
1<
1B
1D
1@
0?
b11011101 >
b10100 =
19
08
b11011101 6
b10100 5
13
01
0'
1%
0$
1#
10
0/
1.
1)
#40000
0!
0:
0(
#40100
1!
1:
1(
bz 4
bz 7
bz C
1<
1B
1D
0@
09
03
#40200
0!
0:
0(
#40300
1!
1:
1(
1<
1B
1D
0@
1?
b1000001 >
b100 =
18
b1000001 6
b100 5
11
0#
0.
0-
0,
0)
#40400
0!
0:
0(
#40500
1!
1:
1(
b10110111 4
b10110111 7
b10110111 C
1<
1B
1D
0@
#40600
0!
0:
0(
#40700
1!
1:
1(
1<
1B
1D
0@
0?
b11010110 >
b11101 =
08
b11010110 6
b11101 5
01
1'
1$
1#
00
1/
1.
1,
1)
#40800
0!
0:
0(
#40900
1!
1:
1(
bz 4
bz 7
bz C
1<
1B
1D
0@
#41000
0!
0:
0(
#41100
1!
1:
1(
1<
1B
1D
0@
1?
b11000000 >
b101 =
18
b11000000 6
b101 5
11
0$
0#
0/
0.
0,
#41200
0!
0:
0(
#41300
1!
1:
1(
b11111000 4
b11111000 7
b11111000 C
1<
1B
1D
0@
#41400
0!
0:
0(
#41500
1!
1:
1(
1<
1B
1D
1@
0?
b11100001 >
b1000 =
19
08
b11100001 6
b1000 5
13
01
0'
0%
1$
10
1+
#41600
0!
0:
0(
#41700
1!
1:
1(
bz 4
bz 7
bz C
1<
1B
1D
0@
09
03
#41800
0!
0:
0(
